KFF Background Code and Preliminary Analysis
…
fscores <- as.data.frame(lavPredict(fit3)) # creates the latent score columns in data frame format
idx <- lavInspect(fit3, "case.idx") # gives the exact row positions those scores belong to

cbt_kff_joined_latent <- cbt_kff_joined # Creating a new dataset that includes the latent variables
cbt_kff_joined_latent[colnames(fscores)] <- NA_real_ # creates all needed latent columns at once
cbt_kff_joined_latent[idx, colnames(fscores)] <- fscores # this fills in the correct rows

# Checking that my data combined correctly:
length(idx) == nrow(fscores)

## [1] TRUE

cbt_kff_joined[idx, "ID"]

## # A tibble: 149 × 1
##         ID
##      <dbl>
##  1 1100003
##  2 1100005
##  3 1100006
##  4 1100009
##  5 1100013
##  6 1100015
##  7 1100017
##  8 1100020
##  9 1100021
## 10 1100025
## # ℹ 139 more rows

cbt_kff_joined_latent[idx, "ID"]

## # A tibble: 149 × 1
##         ID
##      <dbl>
##  1 1100003
##  2 1100005
##  3 1100006
##  4 1100009
##  5 1100013
##  6 1100015
##  7 1100017
##  8 1100020
##  9 1100021
## 10 1100025
## # ℹ 139 more rows
…
